﻿{
  "tasks": [
    {
      "id": 1,
      "title": "Bus driver",
      "description": "Transport passengers between destinations in town to school and work, as well as between cities and states.",
      "task_type": 3,
      "amount": "30.00",
      "payment": "Cash",
      "status": 0,
      "bid": "30.00",
      "user": {
        "id": 1002,
        "name": "Marcus Cruz",
        "about": "Developed several new methods for implementing dolls in Libya. Have a strong interest in creating marketing channels for wooden horses in Ohio. Spent high school summers getting to know wooden tops in Washington, DC.",
        "image": "https://storage.googleapis.com/theidleapp/development/images/users/17/44d4737c30cd2ed20acf.png",
        "school": "Daisymont Elementary of Astronomy",
        "ratings": 4,
        "is_online": 1,
        "latitude": 10.335825,
        "longitude": 123.932801,
        "conversation_id": 0
      },
      "bids": [
        {
          "id": 1,
          "amount": 25.00,
          "user": {
            "id": 1003,
            "name": "Angela Walker",
            "image": "https://storage.googleapis.com/theidleapp/development/images/users/3/5ca2145ce7435a86c649.png",
            "ratings": 5,
            "school": "Rainlane College of Trade",
            "about": "Spent two years getting to know yogurt in Naples, FL. Spent two years developing strategies for frisbees for the government.",
            "is_online": 0,
            "conversation_id": 6,
          }
        },
        {
          "id": 2,
          "amount": 28.00,
          "user": {
            "id": 1004,
            "name": "Thalia Cobb",
            "image": "https://storage.googleapis.com/theidleapp/development/images/users/5/f45e93fd3e5f0103d1d7.png",
            "ratings": 5,
            "school": "Oxmont Elementary of Law",
            "about": "Set new standards for licensing rubik's cubes in Phoenix, AZ. Managed a small team short selling toy monkeys for no pay. Spent a year managing toy soldiers in Ocean City, NJ.",
            "is_online": 1,
            "conversation_id": 2
          }
        }
      ]
    }
  ],
  "status": 200
}