﻿{
  "conversations": [
    {
      "id": 0,
      "is_read": 1,
      "user": {
        "id": 0,
        "name": "Waylon Dalton",
        "image": "https://storage.googleapis.com/theidleapp/development/images/users/4/7ddcbfeab93c656b1c3c.png"
      },
      "message": "Sure..."
    },
    {
      "id": 1,
      "is_read": 1,
      "user": {
        "id": 1,
        "name": "Marcus Cruz",
        "image": "https://storage.googleapis.com/theidleapp/development/images/users/17/44d4737c30cd2ed20acf.png"
      },
      "message": "Are you capable of doing this task?"
    },
    {
      "id": 2,
      "is_read": 1,
      "user": {
        "id": 2,
        "name": "Angela Walker",
        "image": "https://storage.googleapis.com/theidleapp/development/images/users/3/5ca2145ce7435a86c649.png"
      },
      "message": "Thank you!"
    },
    {
      "id": 3,
      "is_read": 1,
      "user": {
        "id": 3,
        "name": "Thalia Cobb",
        "image": "https://storage.googleapis.com/theidleapp/development/images/users/5/f45e93fd3e5f0103d1d7.png"
      },
      "message": "Good Day! How are you?"
    },
    {
      "id": 4,
      "is_read": 1,
      "user": {
        "id": 4,
        "name": "Lia Shelton",
        "image": "https://storage.googleapis.com/theidleapp/development/images/users/11/96e60cf14f50e78d2773.png"
      },
      "message": "I can assure you that I can do this job."
    }
  ],
  "status": 200
}
