﻿{
  "tasks": [
    {
      "id": 1001,
      "title": "Folding laundry",
      "description": "A big pile of warm, clean clothes that smell like Downy. The “snap” as you shake out an item.",
      "task_type": 2,
      "latitude": 10.336714,
      "longitude": 123.933937,
      "amount": "10.00",
      "payment": "Cash",
      "status": 0,
      "bid": "0.00",
      "user": {
        "id": 1001,
        "name": "Waylon Dalton",
        "about": "Spent a weekend getting to know dandruff in Los Angeles, CA. Spent a year short selling wool in Los Angeles, CA. Spent high school summers getting my feet wet with accordians in Las Vegas, NV. Managed a small team researching glue in Phoenix, AZ. Have some experience donating Roombas in Miami, FL. Lead a team exporting cellos in Prescott, AZ.",
        "image": "https://storage.googleapis.com/theidleapp/development/images/users/4/7ddcbfeab93c656b1c3c.png",
        "school": "Clovebluff Academy of Design",
        "ratings": 3,
        "is_online": 1,
        "latitude": 10.335455,
        "longitude": 123.933600
      }
    },
    {
      "id": 1002,
      "title": "Grooming a pet",
      "description": "We had cats for many years. If we didn't comb them, we'd be tripping over orange-sized fur balls around the house.",
      "task_type": 4,
      "latitude": 10.334139,
      "longitude": 123.929956,
      "amount": "15.00",
      "payment": "Cash",
      "status": 0,
      "bid": "0.00",
      "user": {
        "id": 1002,
        "name": "Marcus Cruz",
        "about": "Developed several new methods for implementing dolls in Libya. Have a strong interest in creating marketing channels for wooden horses in Ohio. Spent high school summers getting to know wooden tops in Washington, DC.",
        "image": "https://storage.googleapis.com/theidleapp/development/images/users/17/44d4737c30cd2ed20acf.png",
        "school": "Daisymont Elementary of Astronomy",
        "ratings": 4,
        "is_online": 1,
        "latitude": 10.335825,
        "longitude": 123.932801
      }
    },
    {
      "id": 1003,
      "title": "Buy veggies",
      "description": "An onion, some carrots, a couple of red bell peppers, a cabbage and a big squash.",
      "task_type": 1,
      "latitude": 10.335901,
      "longitude": 123.930107,
      "amount": "20.00",
      "payment": "Cash",
      "status": 0,
      "bid": "0.00",
      "user": {
        "id": 1003,
        "name": "Angela Walker",
        "about": "Spent two years getting to know yogurt in Naples, FL. Spent two years developing strategies for frisbees for the government.",
        "image": "https://storage.googleapis.com/theidleapp/development/images/users/3/5ca2145ce7435a86c649.png",
        "school": "Rainlane College of Trade",
        "ratings": 5,
        "is_online": 1,
        "latitude": 10.335883,
        "longitude": 123.928456
      }
    },
    {
      "id": 1004,
      "title": "Washing dishes",
      "description": "Washing dishes in warm soapy water, rinsing in cool water, drying with a clean cotton towel and stacking neatly",
      "task_type": 0,
      "latitude": 10.338989,
      "longitude": 123.929836,
      "amount": "25.00",
      "payment": "Cash",
      "status": 0,
      "bid": "0.00",
      "user": {
        "id": 1004,
        "name": "Thalia Cobb",
        "about": "Set new standards for licensing rubik's cubes in Phoenix, AZ. Managed a small team short selling toy monkeys for no pay. Spent a year managing toy soldiers in Ocean City, NJ.",
        "image": "https://storage.googleapis.com/theidleapp/development/images/users/5/f45e93fd3e5f0103d1d7.png",
        "school": "Oxmont Elementary of Law",
        "ratings": 5,
        "is_online": 1,
        "latitude": 10.337954,
        "longitude": 123.928638
      }
    },
    {
      "id": 1005,
      "title": "Bus driver",
      "description": "Transport passengers between destinations in town to school and work, as well as between cities and states.",
      "task_type": 3,
      "latitude": 10.338683,
      "longitude": 123.932529,
      "amount": "30.00",
      "payment": "Cash",
      "status": 0,
      "bid": "0.00",
      "user": {
        "id": 1005,
        "name": "Lia Shelton",
        "about": "A real dynamo when it comes to creating marketing channels for xylophones in Washington, DC. Had a brief career testing the market for puppets in Tampa, FL. Enthusiastic about building toy planes in Bethesda, MD.",
        "image": "https://storage.googleapis.com/theidleapp/development/images/users/11/96e60cf14f50e78d2773.png",
        "school": "Oakdell Highschool of Politics",
        "ratings": 4,
        "is_online": 1,
        "latitude": 10.338007,
        "longitude": 123.931638
      }
    }
  ],
  "users": [
    {
      "id": 1001,
      "name": "Waylon Dalton",
      "about": "Spent a weekend getting to know dandruff in Los Angeles, CA. Spent a year short selling wool in Los Angeles, CA. Spent high school summers getting my feet wet with accordians in Las Vegas, NV. Managed a small team researching glue in Phoenix, AZ. Have some experience donating Roombas in Miami, FL. Lead a team exporting cellos in Prescott, AZ.",
      "image": "https://storage.googleapis.com/theidleapp/development/images/users/4/7ddcbfeab93c656b1c3c.png",
      "school": "Clovebluff Academy of Design",
      "ratings": 3,
      "is_online": 1,
      "latitude": 10.333925,
      "longitude": 123.933291
    },
    {
      "id": 1002,
      "name": "Marcus Cruz",
      "about": "Developed several new methods for implementing dolls in Libya. Have a strong interest in creating marketing channels for wooden horses in Ohio. Spent high school summers getting to know wooden tops in Washington, DC.",
      "image": "https://storage.googleapis.com/theidleapp/development/images/users/17/44d4737c30cd2ed20acf.png",
      "school": "Daisymont Elementary of Astronomy",
      "ratings": 4,
      "is_online": 1,
      "latitude": 10.335825,
      "longitude": 123.932801
    },
    {
      "id": 1003,
      "name": "Angela Walker",
      "about": "Spent two years getting to know yogurt in Naples, FL. Spent two years developing strategies for frisbees for the government.",
      "image": "https://storage.googleapis.com/theidleapp/development/images/users/3/5ca2145ce7435a86c649.png",
      "school": "Rainlane College of Trade",
      "ratings": 5,
      "is_online": 1,
      "latitude": 10.335883,
      "longitude": 123.928456
    },
    {
      "id": 1004,
      "name": "Thalia Cobb",
      "about": "Set new standards for licensing rubik's cubes in Phoenix, AZ. Managed a small team short selling toy monkeys for no pay. Spent a year managing toy soldiers in Ocean City, NJ.",
      "image": "https://storage.googleapis.com/theidleapp/development/images/users/5/f45e93fd3e5f0103d1d7.png",
      "school": "Oxmont Elementary of Law",
      "ratings": 5,
      "is_online": 1,
      "latitude": 10.337954,
      "longitude": 123.928638
    },
    {
      "id": 1005,
      "name": "Lia Shelton",
      "about": "A real dynamo when it comes to creating marketing channels for xylophones in Washington, DC. Had a brief career testing the market for puppets in Tampa, FL. Enthusiastic about building toy planes in Bethesda, MD.",
      "image": "https://storage.googleapis.com/theidleapp/development/images/users/11/96e60cf14f50e78d2773.png",
      "school": "Oakdell Highschool of Politics",
      "ratings": 4,
      "is_online": 1,
      "latitude": 10.338007,
      "longitude": 123.931638
    }
  ],
  "status": 200
}
