﻿{
  "progress": [
    {
      "id": 1,
      "title": "Buy 2 dozen eggs",
      "latitude": 0.0,
      "longitude": 0.0,
      "user": {
        "id": 1,
        "name": "Childish Gamboa",
        "image": ""
      }
    }
  ]
}
