﻿{
  "user": {
    "id": 10,
    "name": "Alexa Brooke",
    "email": "crowelmo@gmail.com",
    "image": "https://storage.googleapis.com/theidleapp/development/images/users/10/8fc25b55a16f4430a597.png",
    "token": "2809c23e75526694f493b7261f7d816aa8efbc1f",
    "is_online": 1,
    "about": "Customer-oriented Pizza Delivery Driver who maintains thorough and accurate knowledge of roads and constants communication with restaurants. Efficient and accurate with proficiency for handling multiple deliveries per run. Has valid license.",
    "school": "Appstone Academy",
    "has_stripe": 1,
    "is_confirmed": 1,
    "is_performer": 1,
    "ratings": 4,
    "completed": 11,
    "mobile": "87000",
    "age": 25,
    "perform": [
      {
        "id": 0,
        "title": "Wash 25 Kilo’s",
        "description": "I have to clean my sheets for my upcoming reunion with my collegues from high school. Need help someone to work on this.",
        "task_type": 2,
        "status": 1,
        "amount": "26.00",
        "payment": "Cash",
        "bid": "6.00",
        "latitude": 10.370628938193,
        "longitude": 123.952768744569,
        "has_rate": 0,
        "user": {
          "id": 1002,
          "name": "Marcus Cruz",
          "about": "Developed several new methods for implementing dolls in Libya. Have a strong interest in creating marketing channels for wooden horses in Ohio. Spent high school summers getting to know wooden tops in Washington, DC.",
          "image": "https://storage.googleapis.com/theidleapp/development/images/users/17/44d4737c30cd2ed20acf.png",
          "school": "Daisymont Elementary of Astronomy",
          "ratings": 4,
          "is_online": 1,
          "conversation_id": 10,
          "latitude": 10.335825,
          "longitude": 123.932801
        }
      },
      {
        "id": 1,
        "title": "2 Dozens of Eggs",
        "description": "Need 2 dozens of eggs for making a cake for my daughter.",
        "task_type": 0,
        "status": 5,
        "amount": "89.00",
        "payment": "Cash",
        "bid": "90.00",
        "latitude": 10.3364789341596,
        "longitude": 123.929937528434,
        "has_rate": 0,
        "user": {
          "id": 1003,
          "name": "Angela Walker",
          "about": "Spent two years getting to know yogurt in Naples, FL. Spent two years developing strategies for frisbees for the government.",
          "image": "https://storage.googleapis.com/theidleapp/development/images/users/3/5ca2145ce7435a86c649.png",
          "school": "Rainlane College of Trade",
          "ratings": 5,
          "is_online": 1,
          "conversation_id": 6,
          "latitude": 10.335883,
          "longitude": 123.928456
        }
      }
    ],
    "post": [
      {
        "id": 11,
        "title": "Test Idle",
        "description": "Testing Theidleapp...\n",
        "task_type": 4,
        "status": 5,
        "amount": "10.00",
        "payment": "Cash",
        "bid": "10.00",
        "latitude": 10.35649,
        "longitude": 123.927498333333,
        "user": {
          "id": 1001,
          "name": "Waylon Dalton",
          "about": "Spent a weekend getting to know dandruff in Los Angeles, CA. Spent a year short selling wool in Los Angeles, CA. Spent high school summers getting my feet wet with accordians in Las Vegas, NV. Managed a small team researching glue in Phoenix, AZ. Have some experience donating Roombas in Miami, FL. Lead a team exporting cellos in Prescott, AZ.",
          "image": "https://storage.googleapis.com/theidleapp/development/images/users/4/7ddcbfeab93c656b1c3c.png",
          "school": "Clovebluff Academy of Design",
          "ratings": 3,
          "is_online": 1,
          "conversation_id": 0,
          "latitude": 10.333925,
          "longitude": 123.933291
        }
      },
      {
        "id": 12,
        "title": "Partner for karate",
        "description": "Needed someone to be a sparing partner for my kids while im away.",
        "task_type": 0,
        "status": 1,
        "amount": "12.00",
        "payment": "Cash",
        "bid": "12.00",
        "latitude": 10.3365618260528,
        "longitude": 123.929909053843,
        "user": {
          "id": 1004,
          "name": "Thalia Cobb",
          "about": "Set new standards for licensing rubik's cubes in Phoenix, AZ. Managed a small team short selling toy monkeys for no pay. Spent a year managing toy soldiers in Ocean City, NJ.",
          "image": "https://storage.googleapis.com/theidleapp/development/images/users/5/f45e93fd3e5f0103d1d7.png",
          "school": "Oxmont Elementary of Law",
          "ratings": 5,
          "is_online": 1,
          "conversation_id": 6,
          "latitude": 10.337954,
          "longitude": 123.928638
        }
      },
      {
        "id": 13,
        "title": "Playmate",
        "description": "Need someone to play with my kids in the park.",
        "task_type": 0,
        "status": 1,
        "amount": "123.00",
        "payment": "Cash",
        "bid": "222.00",
        "latitude": 10.3392183333333,
        "longitude": 123.932,
        "user": {
          "id": 1005,
          "name": "Lia Shelton",
          "about": "A real dynamo when it comes to creating marketing channels for xylophones in Washington, DC. Had a brief career testing the market for puppets in Tampa, FL. Enthusiastic about building toy planes in Bethesda, MD.",
          "image": "https://storage.googleapis.com/theidleapp/development/images/users/11/96e60cf14f50e78d2773.png",
          "school": "Oakdell Highschool of Politics",
          "ratings": 4,
          "is_online": 1,
          "conversation_id": 10,
          "latitude": 10.338007,
          "longitude": 123.931638
        }
      }
    ],
    "tasks": [
      {
        "id": 70,
        "title": "Car wash",
        "description": "Wash my car",
        "task_type": 0,
        "amount": "457.00",
        "payment": "Cash",
        "status": 6,
        "bid": "460.00",
        "date": "OCT 13, 2017",
        "is_cancel": 0,
        "ratings": 4,
        "has_rate": 1,
        "user": {
          "id": 1002,
          "name": "Marcus Cruz",
          "about": "Developed several new methods for implementing dolls in Libya. Have a strong interest in creating marketing channels for wooden horses in Ohio. Spent high school summers getting to know wooden tops in Washington, DC.",
          "image": "https://storage.googleapis.com/theidleapp/development/images/users/17/44d4737c30cd2ed20acf.png",
          "school": "Daisymont Elementary of Astronomy",
          "ratings": 4,
          "is_online": 1,
          "conversation_id": 10,
          "latitude": 10.335825,
          "longitude": 123.932801
        }
      },
      {
        "id": 69,
        "title": "Buy Jacket",
        "description": "Buy jacket for winter",
        "task_type": 1,
        "amount": "458.00",
        "payment": "Cash",
        "status": 6,
        "bid": "458.00",
        "date": "OCT 13, 2017",
        "is_cancel": 0,
        "ratings": 4,
        "has_rate": 1,
        "user": {
          "id": 1003,
          "name": "Angela Walker",
          "about": "Spent two years getting to know yogurt in Naples, FL. Spent two years developing strategies for frisbees for the government.",
          "image": "https://storage.googleapis.com/theidleapp/development/images/users/3/5ca2145ce7435a86c649.png",
          "school": "Rainlane College of Trade",
          "ratings": 5,
          "is_online": 1,
          "conversation_id": 6,
          "latitude": 10.335883,
          "longitude": 123.928456
        }
      },
      {
        "id": 67,
        "title": "Buy eggs and ham",
        "description": "buy egg and ham for my childrens dinner cause im coming home late.",
        "task_type": 1,
        "amount": "45.00",
        "payment": "Cash",
        "status": 6,
        "bid": "45.00",
        "date": "OCT 15, 2017",
        "is_cancel": 0,
        "ratings": 4,
        "has_rate": 1,
        "user": {
          "id": 1001,
          "name": "Waylon Dalton",
          "about": "Spent a weekend getting to know dandruff in Los Angeles, CA. Spent a year short selling wool in Los Angeles, CA. Spent high school summers getting my feet wet with accordians in Las Vegas, NV. Managed a small team researching glue in Phoenix, AZ. Have some experience donating Roombas in Miami, FL. Lead a team exporting cellos in Prescott, AZ.",
          "image": "https://storage.googleapis.com/theidleapp/development/images/users/4/7ddcbfeab93c656b1c3c.png",
          "school": "Clovebluff Academy of Design",
          "ratings": 3,
          "is_online": 1,
          "conversation_id": 0,
          "latitude": 10.335455,
          "longitude": 123.933600
        }
      },
      {
        "id": 66,
        "title": "Buy junk food and drinks",
        "description": "buy junk food and drink we can have fun too eating while watching movie.",
        "task_type": 1,
        "amount": "78.00",
        "payment": "Cash",
        "status": 6,
        "bid": "78.00",
        "date": "OCT 15, 2017",
        "is_cancel": 0,
        "ratings": 4,
        "has_rate": 1,
        "user": {
          "id": 1004,
          "name": "Thalia Cobb",
          "about": "Set new standards for licensing rubik's cubes in Phoenix, AZ. Managed a small team short selling toy monkeys for no pay. Spent a year managing toy soldiers in Ocean City, NJ.",
          "image": "https://storage.googleapis.com/theidleapp/development/images/users/5/f45e93fd3e5f0103d1d7.png",
          "school": "Oxmont Elementary of Law",
          "ratings": 5,
          "is_online": 1,
          "conversation_id": 6,
          "latitude": 10.337954,
          "longitude": 123.928638
        }
      },
      {
        "id": 71,
        "title": "Digging hole in my backyard",
        "description": "Dig hole for my garden in the backyard",
        "task_type": 4,
        "amount": "143.00",
        "payment": "Cash",
        "status": 6,
        "bid": "200.00",
        "date": "OCT 16, 2017",
        "is_cancel": 0,
        "ratings": 4,
        "has_rate": 1,
        "user": {
          "id": 1005,
          "name": "Lia Shelton",
          "about": "A real dynamo when it comes to creating marketing channels for xylophones in Washington, DC. Had a brief career testing the market for puppets in Tampa, FL. Enthusiastic about building toy planes in Bethesda, MD.",
          "image": "https://storage.googleapis.com/theidleapp/development/images/users/11/96e60cf14f50e78d2773.png",
          "school": "Oakdell Highschool of Politics",
          "ratings": 4,
          "is_online": 1,
          "conversation_id": 10,
          "latitude": 10.338007,
          "longitude": 123.931638
        }
      },
      {
        "id": 71,
        "title": "Need a lift",
        "description": "Need a lift to ride to home cause i dont have any and im kind a in a hurry.",
        "task_type": 0,
        "amount": "143.00",
        "payment": "Cash",
        "status": 6,
        "bid": "200.00",
        "date": "OCT 16, 2017",
        "is_cancel": 0,
        "ratings": 4,
        "has_rate": 1,
        "user": {
          "id": 1004,
          "name": "Thalia Cobb",
          "about": "Set new standards for licensing rubik's cubes in Phoenix, AZ. Managed a small team short selling toy monkeys for no pay. Spent a year managing toy soldiers in Ocean City, NJ.",
          "image": "https://storage.googleapis.com/theidleapp/development/images/users/5/f45e93fd3e5f0103d1d7.png",
          "school": "Oxmont Elementary of Law",
          "ratings": 5,
          "is_online": 1,
          "conversation_id": 6,
          "latitude": 10.337954,
          "longitude": 123.928638
        }
      },
      {
        "id": 71,
        "title": "Fetch my furniture",
        "description": "Fetch my furniture in Furniture shop where i bought a chiar in tables.",
        "task_type": 3,
        "amount": "143.00",
        "payment": "Cash",
        "status": 6,
        "bid": "200.00",
        "date": "OCT 16, 2017",
        "is_cancel": 0,
        "ratings": 4,
        "has_rate": 1,
        "user": {
          "id": 1003,
          "name": "Angela Walker",
          "about": "Spent two years getting to know yogurt in Naples, FL. Spent two years developing strategies for frisbees for the government.",
          "image": "https://storage.googleapis.com/theidleapp/development/images/users/3/5ca2145ce7435a86c649.png",
          "school": "Rainlane College of Trade",
          "ratings": 5,
          "is_online": 1,
          "conversation_id": 6,
          "latitude": 10.335883,
          "longitude": 123.928456
        }
      }
    ]
  },
  "status": 200
}