﻿{
  "task": {
    "id": 1,
    "title": "Arrange living room in my palace",
    "description": "Roof party pinterest DIY raw denim, butcher photo booth twee you probably haven't heard of them craft beer keytar pickled",
    "task_type": 0,
    "amount": "22.00",
    "payment": "Cash",
    "status": 3,
    "bid": 22.00,
    "user": {
      "id": 4,
      "name": "Childish Gambino",
      "image": "http://www.xsjjys.com/data/out/62/WHDQ-512071516.jpg",
      "school": "Bates College",
      "ratings": 3,
      "is_online": 1
    }
  },
  "status": 200
}