{
  "project_info": {
    "project_number": "798858014814",
    "firebase_url": "https://theidleapp-f1616.firebaseio.com",
    "project_id": "theidleapp-f1616",
    "storage_bucket": "theidleapp-f1616.appspot.com"
  },
  "client": [
    {
      "client_info": {
        "mobilesdk_app_id": "1:798858014814:android:9aa4d83cbbf64f19",
        "android_client_info": {
          "package_name": "com.idle.idleapp"
        }
      },
      "oauth_client": [
        {
          "client_id": "798858014814-nksmauiisiml7h8gs95uq6tslu9hmq2s.apps.googleusercontent.com",
          "client_type": 1,
          "android_info": {
            "package_name": "com.idle.idleapp",
            "certificate_hash": "0fcfd226c7db7a9da277b1407f83e513a8dbcab6"
          }
        },
        {
          "client_id": "798858014814-hol065iq0giefd2u5ltiqj8ogbsk33bq.apps.googleusercontent.com",
          "client_type": 3
        }
      ],
      "api_key": [
        {
          "current_key": "AIzaSyDnENGShqzvbTBoJGBTabvTVeT_wrbK2SM"
        }
      ],
      "services": {
        "analytics_service": {
          "status": 1
        },
        "appinvite_service": {
          "status": 2,
          "other_platform_oauth_client": [
            {
              "client_id": "798858014814-3r03cc88btbgukaf51vkgek6teum6mou.apps.googleusercontent.com",
              "client_type": 2,
              "ios_info": {
                "bundle_id": "com.idle.idleapp"
              }
            },
            {
              "client_id": "798858014814-hol065iq0giefd2u5ltiqj8ogbsk33bq.apps.googleusercontent.com",
              "client_type": 3
            }
          ]
        },
        "ads_service": {
          "status": 2
        }
      }
    }
  ],
  "configuration_version": "1"
}